{
    "openapi": "3.0.0",
    "info": {
        "title": "Laravel Tribal Guatemala Documentation",
        "description": "L5 Swagger Documentacion API con OAuth2 , Tomar en cuenta que en la raiz del proyecto esta el documento postman para realizar pruebas. Sin embargo tambien se deja todo documentado con Swagger , puede encontrar documentacion de The Movie DB en https://developers.themoviedb.org/3/movies/get-now-playing",
        "contact": {
            "email": "codemax120@gmail.com"
        },
        "license": {
            "name": "Apache 2.0",
            "url": "http://www.apache.org/licenses/LICENSE-2.0.html"
        },
        "version": "1.0.0"
    },
    "servers": [
        {
            "url": "http://localhost:8000",
            "description": "Local API Server"
        }
    ],
    "paths": {
        "/api/login": {
            "post": {
                "tags": [
                    "Sesions"
                ],
                "summary": "Generar Token con Inició de Sesión",
                "operationId": "App\\Http\\Controllers\\API\\AuthController::login",
                "parameters": [
                    {
                        "name": "email",
                        "in": "query",
                        "required": true,
                        "schema": {
                            "type": "string"
                        }
                    },
                    {
                        "name": "password",
                        "in": "query",
                        "required": true,
                        "schema": {
                            "type": "string"
                        }
                    }
                ],
                "responses": {
                    "200": {
                        "description": "Success",
                        "content": {
                            "application/json": {}
                        }
                    },
                    "401": {
                        "description": "Unauthenticated"
                    }
                }
            }
        },
        "/api/register": {
            "post": {
                "tags": [
                    "Register"
                ],
                "summary": "Registrar nuevo usuario , devuelve el token y el usuario tal cual se realiza con el inicio de sesion",
                "operationId": "register",
                "parameters": [
                    {
                        "name": "name",
                        "in": "query",
                        "required": true,
                        "schema": {
                            "type": "string"
                        }
                    },
                    {
                        "name": "email",
                        "in": "query",
                        "required": true,
                        "schema": {
                            "type": "string"
                        }
                    },
                    {
                        "name": "password",
                        "in": "query",
                        "required": true,
                        "schema": {
                            "type": "string"
                        }
                    }
                ],
                "responses": {
                    "201": {
                        "description": "Success",
                        "content": {
                            "application/json": {}
                        }
                    },
                    "226": {
                        "description": "Im Used"
                    },
                    "400": {
                        "description": "Bad Request"
                    }
                }
            }
        },
        "/api/v1/movies": {
            "get": {
                "tags": [
                    "movies"
                ],
                "summary": "Get list of movies",
                "description": "Returns list of movies",
                "parameters": [
                    {
                        "name": "page",
                        "in": "query",
                        "required": true,
                        "schema": {
                            "type": "integer"
                        }
                    }
                ],
                "responses": {
                    "200": {
                        "description": "Successful operation"
                    },
                    "401": {
                        "description": "Unauthenticated"
                    }
                }
            }
        },
        "/api/v1/movies/{id}": {
            "get": {
                "tags": [
                    "movies"
                ],
                "summary": "Get specific movie by Id",
                "description": "Returns specific movie by Id",
                "parameters": [
                    {
                        "name": "id",
                        "in": "path",
                        "required": true,
                        "schema": {
                            "type": "integer"
                        }
                    }
                ],
                "responses": {
                    "200": {
                        "description": "Successful operation"
                    },
                    "401": {
                        "description": "Unauthenticated"
                    }
                }
            }
        },
        "/api/v1/movies/comment/{id}": {
            "get": {
                "tags": [
                    "movies"
                ],
                "summary": "Get collection comments of movie by Id",
                "description": "Returns collection comments of movie by Id",
                "parameters": [
                    {
                        "name": "id",
                        "in": "path",
                        "required": true,
                        "schema": {
                            "type": "integer"
                        }
                    }
                ],
                "responses": {
                    "200": {
                        "description": "Successful operation"
                    },
                    "400": {
                        "description": "Bad Request"
                    }
                }
            },
            "post": {
                "tags": [
                    "movies"
                ],
                "summary": "Post comment and rating to movie by Id",
                "description": "Returns specific movie by Id",
                "parameters": [
                    {
                        "name": "id",
                        "in": "path",
                        "required": true,
                        "schema": {
                            "type": "integer"
                        }
                    },
                    {
                        "name": "rating",
                        "in": "query",
                        "required": true,
                        "schema": {
                            "type": "integer"
                        }
                    },
                    {
                        "name": "comment",
                        "in": "query",
                        "required": true,
                        "schema": {
                            "type": "string"
                        }
                    }
                ],
                "responses": {
                    "200": {
                        "description": "Successful operation"
                    },
                    "400": {
                        "description": "Bad Request"
                    }
                }
            }
        }
    },
    "components": {
        "securitySchemes": {
            "bearerAuth": {
                "type": "http",
                "scheme": "bearer"
            },
            "passport": {
                "type": "oauth2",
                "description": "Laravel passport oauth2 securiy.",
                "in": "header",
                "scheme": "https",
                "flows": {
                    "password": {
                        "authorizationUrl": "http://localhost:8000/oauth/authorize",
                        "tokenUrl": "http://localhost:8000/oauth/token",
                        "refreshUrl": "http://localhost:8000/token/refresh",
                        "scopes": []
                    }
                }
            }
        }
    },
    "tags": [
        {
            "name": "Projects",
            "description": "API Endpoints of Projects"
        }
    ],
    "security": [
        []
    ]
}